<?xml version="1.0" encoding="utf-8"?>
<!-- Generator: Adobe Illustrator 22.1.0, SVG Export Plug-In . SVG Version: 6.00 Build 0)  -->
<svg version="1.1" xmlns="http://www.w3.org/2000/svg" xmlns:xlink="http://www.w3.org/1999/xlink" x="0px" y="0px"
	 viewBox="0 0 1000 1000" style="enable-background:new 0 0 1000 1000;" xml:space="preserve">
<style type="text/css">
	.st0{display:none;}
	.st1{display:inline;opacity:0.1;fill:none;stroke:#000000;stroke-width:5;stroke-miterlimit:10;}
</style>
<g id="Grid" class="st0">
	<line class="st1" x1="200" y1="0" x2="200" y2="1000"/>
	<line class="st1" x1="800" y1="0" x2="800" y2="1000"/>
	<line class="st1" x1="500" y1="0" x2="500" y2="1000"/>
	<line class="st1" x1="0" y1="200" x2="1000" y2="200"/>
	<line class="st1" x1="0" y1="500" x2="1000" y2="500"/>
	<line class="st1" x1="0" y1="800" x2="1000" y2="800"/>
	<circle class="st1" cx="500" cy="500" r="300"/>
</g>
<g id="Content">
	<g>
		<path d="M500,329.4l36.4,112.1c5.4,16.5,20.7,27.6,38,27.6h117.9L597,538.5c-14,10.2-19.9,28.2-14.5,44.7l36.4,112.1L523.5,626
			c-7-5.1-15.3-7.6-23.5-7.6s-16.5,2.5-23.5,7.6l-95.4,69.3l36.4-112.1c5.4-16.5-0.5-34.5-14.5-44.7l-95.4-69.3h117.9
			c17.3,0,32.7-11.2,38-27.6L500,329.4 M500,200l-74.5,229.2h-241l195,141.6L305,800l195-141.6L695,800l-74.5-229.2l195-141.6h-241
			L500,200L500,200z"/>
	</g>
	<polygon class="st0" points="500,200 425.5,429.2 184.6,429.2 379.5,570.8 305,800 500,658.4 	"/>
</g>
</svg>
